\relax 
\@writefile{toc}{\contentsline {section}{\numberline {1}Introduction}{1}\protected@file@percent }
\@writefile{toc}{\contentsline {section}{\numberline {2}Quantum communication tasks}{2}\protected@file@percent }
\@writefile{toc}{\contentsline {section}{\numberline {3}Security and privacy challenges}{2}\protected@file@percent }
